what,kind,bundleId,bundleVersion,description,time
activated,workbench,org.eclipse.ui.workbench,3.7.0.I20110519-0100,"",1527686838550
deactivated,workbench,org.eclipse.ui.workbench,3.7.0.I20110519-0100,"",1527686841312
activated,workbench,org.eclipse.ui.workbench,3.7.0.I20110519-0100,"",1527686842334
activated,view,org.eclipse.ui.navigator.resources,3.4.300.I20110421-1800,"org.eclipse.ui.navigator.ProjectExplorer",1527686845584
deactivated,workbench,org.eclipse.ui.workbench,3.7.0.I20110519-0100,"",1527686846754
executed,command,org.eclipse.ltk.ui.refactoring,3.6.0.v20110505-0800,"org.eclipse.ltk.ui.refactoring.commands.deleteResources",1527686848058
executed,command,org.eclipse.ui,3.7.0.I20110602-0100,"org.eclipse.ui.edit.delete",1527686848058
activated,workbench,org.eclipse.ui.workbench,3.7.0.I20110519-0100,"",1527686848064
error,log,,,"The program file specified in the launch configuration does not exist",1527686851726
deactivated,workbench,org.eclipse.ui.workbench,3.7.0.I20110519-0100,"",1527686851741
activated,workbench,org.eclipse.ui.workbench,3.7.0.I20110519-0100,"",1527686853653
deactivated,workbench,org.eclipse.ui.workbench,3.7.0.I20110519-0100,"",1527686858519
activated,workbench,org.eclipse.ui.workbench,3.7.0.I20110519-0100,"",1527686858667
activated,editor,org.eclipse.cdt.ui,5.3.1.201109151620,"org.eclipse.cdt.ui.editor.CEditor",1527686863234
executed,command,org.eclipse.ui,3.7.0.I20110602-0100,"org.eclipse.ui.file.saveAll",1527686865388
deactivated,workbench,org.eclipse.ui.workbench,3.7.0.I20110519-0100,"",1527686866858
activated,workbench,org.eclipse.ui.workbench,3.7.0.I20110519-0100,"",1527686866984
deactivated,workbench,org.eclipse.ui.workbench,3.7.0.I20110519-0100,"",1527686868082
activated,workbench,org.eclipse.ui.workbench,3.7.0.I20110519-0100,"",1527686869137
deactivated,workbench,org.eclipse.ui.workbench,3.7.0.I20110519-0100,"",1527686873573
activated,workbench,org.eclipse.ui.workbench,3.7.0.I20110519-0100,"",1527686896940
deactivated,workbench,org.eclipse.ui.workbench,3.7.0.I20110519-0100,"",1527686899669
activated,workbench,org.eclipse.ui.workbench,3.7.0.I20110519-0100,"",1527686932580
activated,view,org.eclipse.ui.console,3.5.100.v20110511,"org.eclipse.ui.console.ConsoleView",1527686955122
deactivated,workbench,org.eclipse.ui.workbench,3.7.0.I20110519-0100,"",1527686970054
activated,workbench,org.eclipse.ui.workbench,3.7.0.I20110519-0100,"",1527687069013
activated,editor,org.eclipse.cdt.ui,5.3.1.201109151620,"org.eclipse.cdt.ui.editor.CEditor",1527687069053
executed,command,org.eclipse.ui,3.7.0.I20110602-0100,"org.eclipse.ui.edit.copy",1527687216310
executed,command,org.eclipse.ui,3.7.0.I20110602-0100,"org.eclipse.ui.edit.paste",1527687235053
deactivated,workbench,org.eclipse.ui.workbench,3.7.0.I20110519-0100,"",1527687378431
activated,workbench,org.eclipse.ui.workbench,3.7.0.I20110519-0100,"",1527687454584
activated,view,org.eclipse.ui.navigator.resources,3.4.300.I20110421-1800,"org.eclipse.ui.navigator.ProjectExplorer",1527687454701
activated,editor,org.eclipse.cdt.ui,5.3.1.201109151620,"org.eclipse.cdt.ui.editor.CEditor",1527687454771
activated,view,org.eclipse.ui.navigator.resources,3.4.300.I20110421-1800,"org.eclipse.ui.navigator.ProjectExplorer",1527687454782
deactivated,workbench,org.eclipse.ui.workbench,3.7.0.I20110519-0100,"",1527687464740
activated,workbench,org.eclipse.ui.workbench,3.7.0.I20110519-0100,"",1527687464912
deactivated,workbench,org.eclipse.ui.workbench,3.7.0.I20110519-0100,"",1527687466874
activated,workbench,org.eclipse.ui.workbench,3.7.0.I20110519-0100,"",1527687467043
activated,view,org.eclipse.ui.ide,3.7.0.v20110809-1737,"org.eclipse.ui.views.ProblemView",1527687472121
activated,view,org.eclipse.ui.navigator.resources,3.4.300.I20110421-1800,"org.eclipse.ui.navigator.ProjectExplorer",1527687473739
deactivated,workbench,org.eclipse.ui.workbench,3.7.0.I20110519-0100,"",1527687476517
activated,workbench,org.eclipse.ui.workbench,3.7.0.I20110519-0100,"",1527687476598
deactivated,workbench,org.eclipse.ui.workbench,3.7.0.I20110519-0100,"",1527687476602
activated,workbench,org.eclipse.ui.workbench,3.7.0.I20110519-0100,"",1527687482452
deactivated,workbench,org.eclipse.ui.workbench,3.7.0.I20110519-0100,"",1527687483510
activated,workbench,org.eclipse.ui.workbench,3.7.0.I20110519-0100,"",1527687483593
deactivated,workbench,org.eclipse.ui.workbench,3.7.0.I20110519-0100,"",1527687483596
activated,workbench,org.eclipse.ui.workbench,3.7.0.I20110519-0100,"",1527687486620
deactivated,workbench,org.eclipse.ui.workbench,3.7.0.I20110519-0100,"",1527687486708
activated,workbench,org.eclipse.ui.workbench,3.7.0.I20110519-0100,"",1527687494571
activated,view,org.eclipse.ui.console,3.5.100.v20110511,"org.eclipse.ui.console.ConsoleView",1527687497421
activated,editor,org.eclipse.cdt.ui,5.3.1.201109151620,"org.eclipse.cdt.ui.editor.CEditor",1527687540557
executed,command,org.eclipse.ui,3.7.0.I20110602-0100,"org.eclipse.ui.file.saveAll",1527687542800
deactivated,workbench,org.eclipse.ui.workbench,3.7.0.I20110519-0100,"",1527687545118
activated,workbench,org.eclipse.ui.workbench,3.7.0.I20110519-0100,"",1527687547092
deactivated,workbench,org.eclipse.ui.workbench,3.7.0.I20110519-0100,"",1527687551993
activated,workbench,org.eclipse.ui.workbench,3.7.0.I20110519-0100,"",1527687781611
activated,view,org.eclipse.ui.navigator.resources,3.4.300.I20110421-1800,"org.eclipse.ui.navigator.ProjectExplorer",1527687789199
deactivated,workbench,org.eclipse.ui.workbench,3.7.0.I20110519-0100,"",1527687790174
executed,command,org.eclipse.ltk.ui.refactoring,3.6.0.v20110505-0800,"org.eclipse.ltk.ui.refactoring.commands.deleteResources",1527687791165
executed,command,org.eclipse.ui,3.7.0.I20110602-0100,"org.eclipse.ui.edit.delete",1527687791165
activated,workbench,org.eclipse.ui.workbench,3.7.0.I20110519-0100,"",1527687791170
deactivated,workbench,org.eclipse.ui.workbench,3.7.0.I20110519-0100,"",1527687797060
activated,workbench,org.eclipse.ui.workbench,3.7.0.I20110519-0100,"",1527687797142
activated,perspective,org.eclipse.jdt.ui,3.7.1.r371_v20110824-0800,"org.eclipse.jdt.ui.JavaPerspective",1527687815662
activated,view,org.eclipse.ui,3.7.0.I20110602-0100,"org.eclipse.ui.internal.introview",1527687815667
activated,view,org.eclipse.jdt.ui,3.7.1.r371_v20110824-0800,"org.eclipse.jdt.ui.PackageExplorer",1527687815701
activated,perspective,org.eclipse.cdt.ui,5.3.1.201109151620,"org.eclipse.cdt.ui.CPerspective",1527687816535
deactivated,workbench,org.eclipse.ui.workbench,3.7.0.I20110519-0100,"",1527687835195
activated,workbench,org.eclipse.ui.workbench,3.7.0.I20110519-0100,"",1527687903220
activated,editor,org.eclipse.cdt.ui,5.3.1.201109151620,"org.eclipse.cdt.ui.editor.CEditor",1527687903262
deactivated,workbench,org.eclipse.ui.workbench,3.7.0.I20110519-0100,"",1527687924397
activated,workbench,org.eclipse.ui.workbench,3.7.0.I20110519-0100,"",1527687987285
executed,command,org.eclipse.ui,3.7.0.I20110602-0100,"org.eclipse.ui.edit.undo",1527688039724
executed,command,org.eclipse.ui,3.7.0.I20110602-0100,"org.eclipse.ui.edit.undo",1527688040029
executed,command,org.eclipse.ui,3.7.0.I20110602-0100,"org.eclipse.ui.edit.undo",1527688040268
executed,command,org.eclipse.ui,3.7.0.I20110602-0100,"org.eclipse.ui.file.saveAll",1527688084573
deactivated,workbench,org.eclipse.ui.workbench,3.7.0.I20110519-0100,"",1527688098397
activated,workbench,org.eclipse.ui.workbench,3.7.0.I20110519-0100,"",1527688102125
deactivated,workbench,org.eclipse.ui.workbench,3.7.0.I20110519-0100,"",1527688103716
activated,workbench,org.eclipse.ui.workbench,3.7.0.I20110519-0100,"",1527688112973
deactivated,workbench,org.eclipse.ui.workbench,3.7.0.I20110519-0100,"",1527688114567
activated,workbench,org.eclipse.ui.workbench,3.7.0.I20110519-0100,"",1527688114763
deactivated,workbench,org.eclipse.ui.workbench,3.7.0.I20110519-0100,"",1527688117309
activated,workbench,org.eclipse.ui.workbench,3.7.0.I20110519-0100,"",1527688117474
deactivated,workbench,org.eclipse.ui.workbench,3.7.0.I20110519-0100,"",1527688120551
activated,workbench,org.eclipse.ui.workbench,3.7.0.I20110519-0100,"",1527688223246
activated,editor,org.eclipse.cdt.ui,5.3.1.201109151620,"org.eclipse.cdt.ui.editor.CEditor",1527688232009
activated,editor,org.eclipse.cdt.ui,5.3.1.201109151620,"org.eclipse.cdt.ui.editor.CEditor",1527688234529
executed,command,org.eclipse.ui,3.7.0.I20110602-0100,"org.eclipse.ui.edit.copy",1527688352247
activated,editor,org.eclipse.cdt.ui,5.3.1.201109151620,"org.eclipse.cdt.ui.editor.CEditor",1527688361026
executed,command,org.eclipse.ui,3.7.0.I20110602-0100,"org.eclipse.ui.edit.paste",1527688370837
activated,editor,org.eclipse.cdt.ui,5.3.1.201109151620,"org.eclipse.cdt.ui.editor.CEditor",1527688379140
activated,editor,org.eclipse.cdt.ui,5.3.1.201109151620,"org.eclipse.cdt.ui.editor.CEditor",1527688402375
executed,command,org.eclipse.ui,3.7.0.I20110602-0100,"org.eclipse.ui.edit.copy",1527688408615
executed,command,org.eclipse.ui,3.7.0.I20110602-0100,"org.eclipse.ui.edit.paste",1527688410166
executed,command,org.eclipse.ui,3.7.0.I20110602-0100,"org.eclipse.ui.file.saveAll",1527688412289
deactivated,workbench,org.eclipse.ui.workbench,3.7.0.I20110519-0100,"",1527688416060
activated,workbench,org.eclipse.ui.workbench,3.7.0.I20110519-0100,"",1527688418059
activated,view,org.eclipse.ui.navigator.resources,3.4.300.I20110421-1800,"org.eclipse.ui.navigator.ProjectExplorer",1527688420105
deactivated,workbench,org.eclipse.ui.workbench,3.7.0.I20110519-0100,"",1527688421027
executed,command,org.eclipse.ltk.ui.refactoring,3.6.0.v20110505-0800,"org.eclipse.ltk.ui.refactoring.commands.deleteResources",1527688422188
executed,command,org.eclipse.ui,3.7.0.I20110602-0100,"org.eclipse.ui.edit.delete",1527688422188
activated,workbench,org.eclipse.ui.workbench,3.7.0.I20110519-0100,"",1527688422195
deactivated,workbench,org.eclipse.ui.workbench,3.7.0.I20110519-0100,"",1527688425738
activated,workbench,org.eclipse.ui.workbench,3.7.0.I20110519-0100,"",1527688425910
deactivated,workbench,org.eclipse.ui.workbench,3.7.0.I20110519-0100,"",1527688428300
activated,workbench,org.eclipse.ui.workbench,3.7.0.I20110519-0100,"",1527688428319
deactivated,workbench,org.eclipse.ui.workbench,3.7.0.I20110519-0100,"",1527688431346
activated,workbench,org.eclipse.ui.workbench,3.7.0.I20110519-0100,"",1527688433155
deactivated,workbench,org.eclipse.ui.workbench,3.7.0.I20110519-0100,"",1527688434189
activated,workbench,org.eclipse.ui.workbench,3.7.0.I20110519-0100,"",1527688498145
activated,editor,org.eclipse.cdt.ui,5.3.1.201109151620,"org.eclipse.cdt.ui.editor.CEditor",1527688498286
deactivated,workbench,org.eclipse.ui.workbench,3.7.0.I20110519-0100,"",1527688633431
error,log,,,"The 'Parsing-based Proposals (Task-Focused)' proposal computer from the 'org.eclipse.cdt.mylyn.ui' plug-in did not complete normally. Unable to instantiate the extension.",1527688634740
error,log,,,"The 'Parsing-based Proposals (Task-Focused)' proposal computer from the 'org.eclipse.cdt.mylyn.ui' plug-in did not complete normally. Unable to instantiate the extension.",1527688636389
error,log,,,"The 'Parsing-based Proposals (Task-Focused)' proposal computer from the 'org.eclipse.cdt.mylyn.ui' plug-in did not complete normally. Unable to instantiate the extension.",1527688637039
closed,workbench,org.eclipse.ui.workbench,3.7.0.I20110519-0100,"",1527688637485
stopped,bundle,org.eclipse.m2e.logback.configuration,1.0.100.20110804-1717,"org.eclipse.m2e.logback.configuration",1527688637812
stopped,bundle,org.eclipse.m2e.discovery,1.0.100.20110804-1717,"org.eclipse.m2e.discovery",1527688637819
stopped,bundle,org.eclipse.m2e.refactoring,1.0.100.20110804-1717,"org.eclipse.m2e.refactoring",1527688637820
stopped,bundle,org.eclipse.m2e.editor,1.0.100.20110804-1717,"org.eclipse.m2e.editor",1527688637821
stopped,bundle,org.eclipse.m2e.editor.xml,1.0.100.20110804-1717,"org.eclipse.m2e.editor.xml",1527688637822
stopped,bundle,org.eclipse.m2e.jdt,1.0.100.20110804-1717,"org.eclipse.m2e.jdt",1527688637823
stopped,bundle,org.eclipse.m2e.launching,1.0.100.20110804-1717,"org.eclipse.m2e.launching",1527688637823
stopped,bundle,org.eclipse.m2e.usagedata,1.0.100.20110804-1717,"org.eclipse.m2e.usagedata",1527688637823
stopped,bundle,com.soyatec.eemf,3.7.1.20110624,"com.soyatec.eemf",1527688637823
stopped,bundle,com.soyatec.additional,3.7.1.20110624,"com.soyatec.additional",1527688637823
stopped,bundle,com.soyatec.core,3.7.1.20110624,"com.soyatec.core",1527688637825
stopped,bundle,org.eclipse.cdt,8.0.0.201109151620,"org.eclipse.cdt",1527688637825
stopped,bundle,org.eclipse.cdt.doc.user,5.1.0.201109151620,"org.eclipse.cdt.doc.user",1527688637828
stopped,bundle,org.eclipse.pde.ua.ui,1.0.100.v20110516,"org.eclipse.pde.ua.ui",1527688637831
stopped,bundle,org.eclipse.pde.api.tools.ui,1.0.301.v20110803_r371,"org.eclipse.pde.api.tools.ui",1527688637832
stopped,bundle,org.eclipse.pde.ds.ui,1.0.100.v20110516,"org.eclipse.pde.ds.ui",1527688637834
stopped,bundle,org.eclipse.pde.runtime,3.4.201.v20110819-0851,"org.eclipse.pde.runtime",1527688637834
stopped,bundle,org.eclipse.pde.ui.templates,3.4.400.v20110516,"org.eclipse.pde.ui.templates",1527688637835
stopped,bundle,org.eclipse.pde.ui,3.6.100.v20110603,"org.eclipse.pde.ui",1527688637836
stopped,bundle,org.eclipse.ui.cheatsheets,3.4.100.v20110425,"org.eclipse.ui.cheatsheets",1527688637844
stopped,bundle,org.eclipse.help.ui,3.5.101.r37_20110819,"org.eclipse.help.ui",1527688637845
stopped,bundle,org.eclipse.help.webapp,3.6.0.v20110518,"org.eclipse.help.webapp",1527688637845
stopped,bundle,org.eclipse.epp.mpc.ui,1.1.1.I20110907-0947,"org.eclipse.epp.mpc.ui",1527688637845
stopped,bundle,org.eclipse.epp.usagedata.ui,1.3.1.R201106061540,"org.eclipse.epp.usagedata.ui",1527688637845
stopped,bundle,org.eclipse.ui.intro.universal,3.2.500.v20110510,"org.eclipse.ui.intro.universal",1527688637846
stopped,bundle,org.eclipse.ui.intro,3.4.100.v20110425,"org.eclipse.ui.intro",1527688637847
stopped,bundle,org.eclipse.help.base,3.6.1.v201109091335,"org.eclipse.help.base",1527688637847
stopped,bundle,org.eclipse.equinox.http.jetty,2.0.100.v20110502,"org.eclipse.equinox.http.jetty",1527688637848
stopped,bundle,org.eclipse.m2e.core.ui,1.0.100.20110804-1717,"org.eclipse.m2e.core.ui",1527688637849
stopped,bundle,org.eclipse.m2e.core,1.0.100.20110804-1717,"org.eclipse.m2e.core",1527688637849
stopped,bundle,org.eclipse.mylyn.ide.ant,3.8.2.v20120916-1200,"org.eclipse.mylyn.ide.ant",1527688637849
stopped,bundle,org.eclipse.ant.ui,3.5.100.v20110510,"org.eclipse.ant.ui",1527688637852
stopped,bundle,org.eclipse.ant.launching,1.0.100.v20110506,"org.eclipse.ant.launching",1527688637853
stopped,bundle,org.eclipse.egit.mylyn.ui,1.1.0.201109151100-r,"org.eclipse.egit.mylyn.ui",1527688637853
stopped,bundle,org.eclipse.egit.ui,1.1.0.201109151100-r,"org.eclipse.egit.ui",1527688637853
stopped,bundle,org.eclipse.equinox.p2.ui.sdk,1.0.200.v20110502-1955,"org.eclipse.equinox.p2.ui.sdk",1527688637857
stopped,bundle,org.eclipse.mylyn.java.tasks,3.8.2.v20120916-1200,"org.eclipse.mylyn.java.tasks",1527688637857
stopped,bundle,org.eclipse.mylyn.java.ui,3.8.2.v20120916-1200,"org.eclipse.mylyn.java.ui",1527688637857
stopped,bundle,org.eclipse.jdt.junit,3.7.0.v20110505-0800,"org.eclipse.jdt.junit",1527688637858
stopped,bundle,org.eclipse.jdt.apt.ui,3.3.300.v20110305-1450,"org.eclipse.jdt.apt.ui",1527688637858
stopped,bundle,org.eclipse.jdt.debug.ui,3.6.1.v20110803_r371,"org.eclipse.jdt.debug.ui",1527688637858
stopped,bundle,org.eclipse.wb.swing.databinding,1.1.0.r37x201109091143,"org.eclipse.wb.swing.databinding",1527688637858
stopped,bundle,org.eclipse.wb.core.databinding,1.1.0.r37x201109091012,"org.eclipse.wb.core.databinding",1527688637859
stopped,bundle,org.eclipse.wb.swing.FormLayout,1.1.0.r37x201109091143,"org.eclipse.wb.swing.FormLayout",1527688637859
stopped,bundle,org.eclipse.wb.swing.MigLayout,1.1.0.r37x201109091143,"org.eclipse.wb.swing.MigLayout",1527688637859
stopped,bundle,org.eclipse.wb.swing.java6,1.1.0.r37x201109091143,"org.eclipse.wb.swing.java6",1527688637860
stopped,bundle,org.eclipse.wb.swing.jsr296,1.1.0.r37x201109091143,"org.eclipse.wb.swing.jsr296",1527688637861
stopped,bundle,org.eclipse.wb.swing,1.1.0.r37x201109091143,"org.eclipse.wb.swing",1527688637861
stopped,bundle,org.eclipse.wb.core.ui,1.1.0.r37x201109091028,"org.eclipse.wb.core.ui",1527688637861
stopped,bundle,org.eclipse.wb.layout.group,1.1.0.r37x201109091112,"org.eclipse.wb.layout.group",1527688637861
stopped,bundle,org.eclipse.wb.os.linux,1.1.0.r37x201109091012,"org.eclipse.wb.os.linux",1527688637864
stopped,bundle,org.eclipse.wb.core,1.1.0.r37x201109091012,"org.eclipse.wb.core",1527688637864
stopped,bundle,com.soyatec.diagrams,3.7.1.20110624,"com.soyatec.diagrams",1527688637864
stopped,bundle,com.collabnet.subversion.merge,2.2.4,"com.collabnet.subversion.merge",1527688637864
stopped,bundle,org.tigris.subversion.subclipse.graph,1.0.9,"org.tigris.subversion.subclipse.graph",1527688637864
stopped,bundle,org.tigris.subversion.subclipse.mylyn,3.0.0,"org.tigris.subversion.subclipse.mylyn",1527688637864
stopped,bundle,org.tigris.subversion.subclipse.tools.usage,1.0.1,"org.tigris.subversion.subclipse.tools.usage",1527688637865
stopped,bundle,org.tigris.subversion.subclipse.ui,1.6.18,"org.tigris.subversion.subclipse.ui",1527688637874
stopped,bundle,org.eclipse.jdt.ui,3.7.1.r371_v20110824-0800,"org.eclipse.jdt.ui",1527688637899
stopped,bundle,org.eclipse.wst.dtd.ui,1.0.600.v201103171359,"org.eclipse.wst.dtd.ui",1527688637903
stopped,bundle,org.eclipse.wst.xsd.ui,1.2.404.v201105050216,"org.eclipse.wst.xsd.ui",1527688637907
stopped,bundle,org.eclipse.wst.xml.ui,1.1.201.v201108151912,"org.eclipse.wst.xml.ui",1527688637907
stopped,bundle,org.eclipse.wst.common.ui,1.1.500.v200911190730,"org.eclipse.wst.common.ui",1527688637909
stopped,bundle,org.eclipse.wst.sse.ui,1.3.1.v201108191312,"org.eclipse.wst.sse.ui",1527688637910
stopped,bundle,org.eclipse.cdt.debug.ui.memory.search,1.2.0.201109151620,"org.eclipse.cdt.debug.ui.memory.search",1527688637910
stopped,bundle,org.eclipse.cdt.debug.ui.memory.traditional,1.2.0.201109151620,"org.eclipse.cdt.debug.ui.memory.traditional",1527688637910
stopped,bundle,org.eclipse.cdt.codan.checkers.ui,1.0.0.201109151620,"org.eclipse.cdt.codan.checkers.ui",1527688637910
stopped,bundle,org.eclipse.cdt.codan.ui.cxx,2.0.0.201109151620,"org.eclipse.cdt.codan.ui.cxx",1527688637911
stopped,bundle,org.eclipse.cdt.codan.ui,2.0.0.201109151620,"org.eclipse.cdt.codan.ui",1527688637911
stopped,bundle,org.eclipse.cdt.launch.remote,2.3.0.201109151620,"org.eclipse.cdt.launch.remote",1527688637911
stopped,bundle,org.eclipse.cdt.debug.mi.ui,6.1.0.201109151620,"org.eclipse.cdt.debug.mi.ui",1527688637911
stopped,bundle,org.eclipse.cdt.debug.ui.memory.memorybrowser,1.2.100.201109151620,"org.eclipse.cdt.debug.ui.memory.memorybrowser",1527688637911
stopped,bundle,org.eclipse.cdt.dsf.gdb.ui,2.2.1.201109151620,"org.eclipse.cdt.dsf.gdb.ui",1527688637911
stopped,bundle,org.eclipse.cdt.dsf.ui,2.2.0.201109151620,"org.eclipse.cdt.dsf.ui",1527688637912
stopped,bundle,org.eclipse.cdt.gdb.ui,7.0.0.201109151620,"org.eclipse.cdt.gdb.ui",1527688637914
stopped,bundle,org.eclipse.cdt.dsf.gdb,4.0.1.201109151620,"org.eclipse.cdt.dsf.gdb",1527688637916
stopped,bundle,org.eclipse.cdt.launch,7.0.0.201109151620,"org.eclipse.cdt.launch",1527688637917
stopped,bundle,org.eclipse.cdt.debug.ui,7.1.1.201109151620,"org.eclipse.cdt.debug.ui",1527688637917
stopped,bundle,org.eclipse.linuxtools.cdt.autotools.ui,1.0.1.201108301805,"org.eclipse.linuxtools.cdt.autotools.ui",1527688637917
stopped,bundle,org.eclipse.linuxtools.cdt.autotools.core,1.0.2.201108301805,"org.eclipse.linuxtools.cdt.autotools.core",1527688637917
stopped,bundle,org.eclipse.cdt.managedbuilder.ui,8.0.0.201109151620,"org.eclipse.cdt.managedbuilder.ui",1527688637918
stopped,bundle,org.eclipse.cdt.make.ui,7.1.1.201109151620,"org.eclipse.cdt.make.ui",1527688637919
stopped,bundle,org.eclipse.cdt.mylyn.ui,3.6.0.v20110608-1400,"org.eclipse.cdt.mylyn.ui",1527688637926
stopped,bundle,org.eclipse.cdt.ui,5.3.1.201109151620,"org.eclipse.cdt.ui",1527688637934
stopped,bundle,org.eclipse.rse.importexport,1.2.200.v201105021534,"org.eclipse.rse.importexport",1527688637937
stopped,bundle,org.eclipse.rse.subsystems.shells.telnet,1.2.200.v201101042155,"org.eclipse.rse.subsystems.shells.telnet",1527688637937
stopped,bundle,org.eclipse.rse.shells.ui,3.0.301.R33x_v201107181530,"org.eclipse.rse.shells.ui",1527688637939
stopped,bundle,org.eclipse.rse.files.ui,3.2.1.R33x_v201109141647,"org.eclipse.rse.files.ui",1527688637939
stopped,bundle,org.eclipse.rse.processes.ui,3.0.300.v201101042155,"org.eclipse.rse.processes.ui",1527688637940
stopped,bundle,org.eclipse.search,3.7.0.v20110505-0800,"org.eclipse.search",1527688637942
stopped,bundle,org.eclipse.mylyn.commons.team,0.9.1.v20120412-0100,"org.eclipse.mylyn.commons.team",1527688637943
stopped,bundle,org.eclipse.mylyn.team.ui,3.8.2.v20120916-1200,"org.eclipse.mylyn.team.ui",1527688637944
stopped,bundle,org.eclipse.ui.navigator.resources,3.4.300.I20110421-1800,"org.eclipse.ui.navigator.resources",1527688637944
stopped,bundle,org.eclipse.ltk.ui.refactoring,3.6.0.v20110505-0800,"org.eclipse.ltk.ui.refactoring",1527688637948
stopped,bundle,org.eclipse.team.cvs.ui,3.3.400.I20110510-0800,"org.eclipse.team.cvs.ui",1527688637953
stopped,bundle,org.eclipse.team.ui,3.6.100.I20110525-0800,"org.eclipse.team.ui",1527688637957
stopped,bundle,org.eclipse.mylyn.bugzilla.ui,3.8.2.v20120916-1200,"org.eclipse.mylyn.bugzilla.ui",1527688637958
stopped,bundle,org.eclipse.mylyn.ide.ui,3.8.2.v20120916-1200,"org.eclipse.mylyn.ide.ui",1527688637959
stopped,bundle,org.eclipse.mylyn.resources.ui,3.8.2.v20120916-1200,"org.eclipse.mylyn.resources.ui",1527688637959
stopped,bundle,org.eclipse.mylyn.wikitext.tasks.ui,1.5.0.v20110608-1400,"org.eclipse.mylyn.wikitext.tasks.ui",1527688637960
stopped,bundle,org.eclipse.mylyn.context.tasks.ui,3.8.2.v20120916-1200,"org.eclipse.mylyn.context.tasks.ui",1527688637960
stopped,bundle,org.eclipse.mylyn.help.ui,3.8.2.v20120916-1200,"org.eclipse.mylyn.help.ui",1527688637966
stopped,bundle,org.eclipse.mylyn.tasks.bugs,3.8.2.v20120916-1200,"org.eclipse.mylyn.tasks.bugs",1527688637967
stopped,bundle,org.eclipse.mylyn.tasks.ui,3.8.2.v20120916-1200,"org.eclipse.mylyn.tasks.ui",1527688637968
stopped,bundle,org.eclipse.compare,3.5.201.R37x_v20110817-0800,"org.eclipse.compare",1527688637968
stopped,bundle,org.eclipse.ui.externaltools,3.2.0.v20110506,"org.eclipse.ui.externaltools",1527688637968
stopped,bundle,org.eclipse.cdt.debug.ui.memory.transport,2.1.0.201109151620,"org.eclipse.cdt.debug.ui.memory.transport",1527688637968
stopped,bundle,org.eclipse.debug.ui,3.7.101.v20110817_r371,"org.eclipse.debug.ui",1527688637971
stopped,bundle,org.eclipse.mylyn.wikitext.ui,1.5.0.v20110608-1400,"org.eclipse.mylyn.wikitext.ui",1527688637971
stopped,bundle,org.eclipse.rse.subsystems.files.ftp,2.1.301.R33x_v201107212114,"org.eclipse.rse.subsystems.files.ftp",1527688637972
stopped,bundle,org.eclipse.emf.validation.ui.ide,1.3.0.v200901271722,"org.eclipse.emf.validation.ui.ide",1527688637972
stopped,bundle,org.eclipse.emf.validation.ui,1.3.0.v200901271722,"org.eclipse.emf.validation.ui",1527688637972
stopped,bundle,org.soyatec.tools.modeling,3.7.1.20110624,"org.soyatec.tools.modeling",1527688637973
stopped,bundle,org.eclipse.gmf.runtime.diagram.ui.providers.ide,1.2.0.v20090403-1720,"org.eclipse.gmf.runtime.diagram.ui.providers.ide",1527688637973
stopped,bundle,org.eclipse.gmf.runtime.common.ui.action.ide,1.5.0.v20101221-2230,"org.eclipse.gmf.runtime.common.ui.action.ide",1527688637973
stopped,bundle,org.eclipse.gmf.runtime.diagram.ui.geoshapes,1.4.1.v20101119-2230,"org.eclipse.gmf.runtime.diagram.ui.geoshapes",1527688637974
stopped,bundle,org.eclipse.gmf.runtime.diagram.ui.render,1.4.1.v20101119-2230,"org.eclipse.gmf.runtime.diagram.ui.render",1527688637974
stopped,bundle,org.eclipse.gmf.runtime.diagram.ui.printing.render,1.4.1.v20101119-2230,"org.eclipse.gmf.runtime.diagram.ui.printing.render",1527688637975
stopped,bundle,org.eclipse.gmf.runtime.diagram.ui.printing,1.4.1.v20101119-2230,"org.eclipse.gmf.runtime.diagram.ui.printing",1527688637975
stopped,bundle,org.eclipse.gmf.runtime.diagram.ui.providers,1.5.0.v20110216-2230,"org.eclipse.gmf.runtime.diagram.ui.providers",1527688637975
stopped,bundle,org.eclipse.gmf.runtime.diagram.ui.actions,1.4.1.v20101221-2230,"org.eclipse.gmf.runtime.diagram.ui.actions",1527688637976
stopped,bundle,org.eclipse.gmf.runtime.diagram.ui.dnd,1.2.0.v20090403-1720,"org.eclipse.gmf.runtime.diagram.ui.dnd",1527688637976
stopped,bundle,org.eclipse.gmf.runtime.diagram.ui.resources.editor.ide,1.2.1.v20101119-2230,"org.eclipse.gmf.runtime.diagram.ui.resources.editor.ide",1527688637976
stopped,bundle,org.eclipse.gmf.runtime.diagram.ui.resources.editor,1.4.1.v20101119-2230,"org.eclipse.gmf.runtime.diagram.ui.resources.editor",1527688637977
stopped,bundle,org.eclipse.gmf.runtime.diagram.ui.properties,1.4.2.v20101129-2230,"org.eclipse.gmf.runtime.diagram.ui.properties",1527688637977
stopped,bundle,org.eclipse.gmf.runtime.diagram.ui,1.5.0.v20110309-2230,"org.eclipse.gmf.runtime.diagram.ui",1527688637978
stopped,bundle,org.eclipse.gmf.runtime.emf.ui.properties,1.5.0.v20101222-2230,"org.eclipse.gmf.runtime.emf.ui.properties",1527688637978
